…
<img src="main_files/figure-html/continous_data_by_category-3.png" width="672" />

### Plot Text Directly

The ggrepel package provides geom_text_repel() and geom_label_repel(), two geoms that can pick out labels much more flexibly than the default geom_text(). The ggrepel package has several other useful geoms and options to aid with effectively plotting labels along with points. The performance of its labeling algorithm is consistently very good. For many purposes it will be a better first choice than geom_text().


```r
elections_historic %>% dplyr::select(2:7) 
```

```
## # A tibble: 49 × 6
##     year winner                 win_party ec_pct popular_pct popular_margin
##    <int> <chr>                  <chr>      <dbl>       <dbl>          <dbl>
##  1  1824 John Quincy Adams      D.-R.      0.322       0.309        -0.104 
##  2  1828 Andrew Jackson         Dem.       0.682       0.559         0.122 
##  3  1832 Andrew Jackson         Dem.       0.766       0.547         0.178 
##  4  1836 Martin Van Buren       Dem.       0.578       0.508         0.142 
##  5  1840 William Henry Harrison Whig       0.796       0.529         0.0605
##  6  1844 James Polk             Dem.       0.618       0.495         0.0145
##  7  1848 Zachary Taylor         Whig       0.562       0.473         0.0479
##  8  1852 Franklin Pierce        Dem.       0.858       0.508         0.0695
##  9  1856 James Buchanan         Dem.       0.588       0.453         0.122 
## 10  1860 Abraham Lincoln        Rep.       0.594       0.396         0.101 
## # … with 39 more rows
```
…
```
##  [1] 1972 1976 1980 1984 1988 1993 1996 2000 2004 2008 2012 2016
```

```r
mean_age <- gss_lon %>%
    filter(age %nin% NA && year %in% yrs) %>%
    group_by(year) %>%
    summarize(xbar = round(mean(age, na.rm = TRUE), 0))
mean_age
```

```
## # A tibble: 31 × 2
##     year  xbar
##    <dbl> <dbl>
##  1  1972    45
##  2  1973    44
##  3  1974    45
##  4  1975    44
##  5  1976    45
##  6  1977    45
##  7  1978    44
##  8  1980    45
##  9  1982    45
## 10  1983    44
## # … with 21 more rows
```
…
<img src="main_files/figure-html/models-2.png" width="672" />

## Visualizing uncertainty


```r
# Making a plot with error bars in R
lm_data <- gapminder %>%
  nest(data = -c(continent, year))
lm_data
```

```
## # A tibble: 60 × 3
##    continent  year data             
##    <fct>     <int> <list>           
##  1 Asia       1952 <tibble [33 × 4]>
##  2 Asia       1957 <tibble [33 × 4]>
##  3 Asia       1962 <tibble [33 × 4]>
##  4 Asia       1967 <tibble [33 × 4]>
##  5 Asia       1972 <tibble [33 × 4]>
##  6 Asia       1977 <tibble [33 × 4]>
##  7 Asia       1982 <tibble [33 × 4]>
##  8 Asia       1987 <tibble [33 × 4]>
##  9 Asia       1992 <tibble [33 × 4]>
## 10 Asia       1997 <tibble [33 × 4]>
## # … with 50 more rows
```
```r
lm_data <- gapminder %>%
  nest(data = -c(continent, year)) %>%
  mutate(
    fit = map(data, ~lm(lifeExp ~ log(gdpPercap), data = .x)),
    tidy_out = map(fit, tidy)
  ) %>%
  unnest(cols = tidy_out) %>%
  dplyr::select(-fit, -data) %>%
  filter(term != "(Intercept)", continent != "Oceania")
lm_data
```

```
## # A tibble: 48 × 7
##    continent  year term           estimate std.error statistic       p.value
##    <fct>     <int> <chr>             <dbl>     <dbl>     <dbl>         <dbl>
##  1 Asia       1952 log(gdpPercap)     4.16     1.25       3.33 0.00228      
##  2 Asia       1957 log(gdpPercap)     4.17     1.28       3.26 0.00271      
##  3 Asia       1962 log(gdpPercap)     4.59     1.24       3.72 0.000794     
##  4 Asia       1967 log(gdpPercap)     4.50     1.15       3.90 0.000477     
##  5 Asia       1972 log(gdpPercap)     4.44     1.01       4.41 0.000116     
##  6 Asia       1977 log(gdpPercap)     4.87     1.03       4.75 0.0000442    
##  7 Asia       1982 log(gdpPercap)     4.78     0.852      5.61 0.00000377   
##  8 Asia       1987 log(gdpPercap)     5.17     0.727      7.12 0.0000000531 
##  9 Asia       1992 log(gdpPercap)     5.09     0.649      7.84 0.00000000760
## 10 Asia       1997 log(gdpPercap)     5.11     0.628      8.15 0.00000000335
## # … with 38 more rows
```
…
```r
# transforming data: from wide to long
# Step 1
long <- pivot_longer(
  data = dat,
  cols = rt_word:acc_nonword,
  names_to = "dv_condition",
  values_to = "dv"
)
long
```

```
## # A tibble: 400 × 5
##    id      age language    dv_condition    dv
##    <chr> <dbl> <fct>       <chr>        <dbl>
##  1 S001     22 monolingual rt_word       379.
##  2 S001     22 monolingual rt_nonword    517.
##  3 S001     22 monolingual acc_word       99 
##  4 S001     22 monolingual acc_nonword    90 
##  5 S002     33 monolingual rt_word       312.
##  6 S002     33 monolingual rt_nonword    435.
##  7 S002     33 monolingual acc_word       94 
##  8 S002     33 monolingual acc_nonword    82 
##  9 S003     23 monolingual rt_word       405.
## 10 S003     23 monolingual rt_nonword    459.
## # … with 390 more rows
```

```r
# Step 2
long2 <- pivot_longer(
  data = dat,
  cols = rt_word:acc_nonword,
  names_sep = "_",
  names_to = c("dv_type", "condition"),
  values_to = "dv"
)
long2
```

```
## # A tibble: 400 × 6
##    id      age language    dv_type condition    dv
##    <chr> <dbl> <fct>       <chr>   <chr>     <dbl>
##  1 S001     22 monolingual rt      word       379.
##  2 S001     22 monolingual rt      nonword    517.
##  3 S001     22 monolingual acc     word        99 
##  4 S001     22 monolingual acc     nonword     90 
##  5 S002     33 monolingual rt      word       312.
##  6 S002     33 monolingual rt      nonword    435.
##  7 S002     33 monolingual acc     word        94 
##  8 S002     33 monolingual acc     nonword     82 
##  9 S003     23 monolingual rt      word       405.
## 10 S003     23 monolingual rt      nonword    459.
## # … with 390 more rows
```

```r
# Step 3
dat_long <- pivot_wider(
  data = long2,
  names_from = "dv_type",
  values_from = "dv"
)
dat_long
```

```
## # A tibble: 200 × 6
##    id      age language    condition    rt   acc
##    <chr> <dbl> <fct>       <chr>     <dbl> <dbl>
##  1 S001     22 monolingual word       379.    99
##  2 S001     22 monolingual nonword    517.    90
##  3 S002     33 monolingual word       312.    94
##  4 S002     33 monolingual nonword    435.    82
##  5 S003     23 monolingual word       405.    96
##  6 S003     23 monolingual nonword    459.    87
##  7 S004     28 monolingual word       298.    92
##  8 S004     28 monolingual nonword    336.    76
##  9 S005     26 monolingual word       316.    91
## 10 S005     26 monolingual nonword    401.    83
## # … with 190 more rows
```
…
